{
  "posts": [
    {
      "id": 1,
      "user": "ala",
      "title": "existing entry"
    },
    {
      "id": "1970d07b-4d1d-4427-8d57-a8ee824f3c3c",
      "user": "basia13",
      "title": "there is no spoon"
    },
    {
      "id": "e3022d80-24b5-4490-a06c-74dc687fae17",
      "user": "ala",
      "title": "my spoon is too big"
    },
    {
      "id": "ba4b220b-7bcc-404e-b766-f1e5fa5278f0",
      "user": "zenek",
      "title": "spoons rule!"
    },
    {
      "id": "360f54a8-fe47-486a-90e4-3cb283c8bdc8",
      "user": "root",
      "title": "ala ma kota"
    }
  ]
}